{
  "status": true,
  "message": "Orders fetched successfully",
  "data": {
    "current_page": 1,
    "data": [
      {
        "id": 1156,
        "uuid": "4b74129b-94f4-4de3-ae94-6be7b1e28187",
        "branch_id": 4,
        "order_number": 502,
        "formatted_order_number": null,
        "date_time": "2026-03-17T18:11:06.000000Z",
        "table_id": null,
        "customer_id": null,
        "number_of_pax": null,
        "waiter_id": null,
        "added_by": 5,
        "cancelled_by": null,
        "cancel_time": null,
        "status": "billed",
        "placed_via": "pos",
        "sub_total": "475.00",
        "tip_amount": "0.00",
        "total_tax_amount": "0.00",
        "tax_base": null,
        "tax_mode": null,
        "tip_note": null,
        "total": "475.00",
        "amount_paid": "0.00",
        "created_at": "2026-03-17T18:11:06.000000Z",
        "updated_at": "2026-03-17T18:11:07.000000Z",
        "order_type_id": 3,
        "delivery_app_id": null,
        "custom_order_type_name": null,
        "order_type": {
          "id": 3,
          "branch_id": 4,
          "order_type_name": "Pickup",
          "slug": "pickup",
          "is_active": 1,
          "is_default": 1,
          "enable_token_number": false,
          "enable_from_customer_site": true,
          "type": "pickup",
          "created_at": "2025-09-24T18:56:20.000000Z",
          "updated_at": "2026-03-11T05:16:29.000000Z"
        },
        "pickup_date": "2026-03-17T18:10:37.000000Z",
        "delivery_executive_id": null,
        "delivery_address": null,
        "customer_addresses_id": null,
        "delivery_time": null,
        "prep_time_minutes": null,
        "estimated_delivery_time": null,
        "split_type": null,
        "discount_type": null,
        "discount_value": null,
        "discount_amount": null,
        "order_status": "preparing",
        "delivery_fee": "0.00",
        "customer_lat": null,
        "customer_lng": null,
        "is_within_radius": 0,
        "delivery_started_at": null,
        "delivered_at": null,
        "estimated_eta_min": null,
        "estimated_eta_max": null,
        "cancel_reason_id": null,
        "cancel_reason_text": null,
        "reservation_id": null,
        "loyalty_points_redeemed": 0,
        "loyalty_discount_amount": "0.00",
        "stamp_discount_amount": "0.00",
        "pickup_otp": null,
        "delivery_otp": null,
        "pickup_verified": 0,
        "delivery_verified": 0,
        "kot_count": 1,
        "show_formatted_order_number": "Order #502",
        "customer": null,
        "waiter": null,
        "delivery_executive": null,
        "table": null,
        "reservation": null
      },
      {
        "id": 1155,
        "uuid": "7766123f-0b45-43df-8c80-a5e4a177f152",
        "branch_id": 4,
        "order_number": 501,
        "formatted_order_number": null,
        "date_time": "2026-03-17T17:51:35.000000Z",
        "table_id": null,
        "customer_id": null,
        "number_of_pax": 1,
        "waiter_id": null,
        "added_by": 5,
        "cancelled_by": null,
        "cancel_time": null,
        "status": "billed",
        "placed_via": "pos",
        "sub_total": "1160.00",
        "tip_amount": "0.00",
        "total_tax_amount": "0.00",
        "tax_base": null,
        "tax_mode": null,
        "tip_note": null,
        "total": "1160.00",
        "amount_paid": "0.00",
        "created_at": "2026-03-17T17:51:35.000000Z",
        "updated_at": "2026-03-17T17:51:37.000000Z",
        "order_type_id": 1,
        "delivery_app_id": null,
        "custom_order_type_name": null,
        "order_type": {
          "id": 1,
          "branch_id": 4,
          "order_type_name": "Dine In",
          "slug": "dine_in",
          "is_active": 1,
          "is_default": 1,
          "enable_token_number": false,
          "enable_from_customer_site": true,
          "type": "dine_in",
          "created_at": "2025-09-24T18:56:20.000000Z",
          "updated_at": "2026-03-11T05:16:29.000000Z"
        },
        "pickup_date": null,
        "delivery_executive_id": null,
        "delivery_address": null,
        "customer_addresses_id": null,
        "delivery_time": null,
        "prep_time_minutes": null,
        "estimated_delivery_time": null,
        "split_type": null,
        "discount_type": null,
        "discount_value": null,
        "discount_amount": null,
        "order_status": "preparing",
        "delivery_fee": "0.00",
        "customer_lat": null,
        "customer_lng": null,
        "is_within_radius": 0,
        "delivery_started_at": null,
        "delivered_at": null,
        "estimated_eta_min": null,
        "estimated_eta_max": null,
        "cancel_reason_id": null,
        "cancel_reason_text": null,
        "reservation_id": null,
        "loyalty_points_redeemed": 0,
        "loyalty_discount_amount": "0.00",
        "stamp_discount_amount": "0.00",
        "pickup_otp": null,
        "delivery_otp": null,
        "pickup_verified": 0,
        "delivery_verified": 0,
        "kot_count": 1,
        "show_formatted_order_number": "Order #501",
        "customer": null,
        "waiter": null,
        "delivery_executive": null,
        "table": null,
        "reservation": null
      },
      {
        "id": 1154,
        "uuid": "b899b6bc-78fa-4799-84d9-415934af7298",
        "branch_id": 4,
        "order_number": 500,
        "formatted_order_number": null,
        "date_time": "2026-03-17T17:33:17.000000Z",
        "table_id": null,
        "customer_id": null,
        "number_of_pax": 1,
        "waiter_id": null,
        "added_by": 5,
        "cancelled_by": null,
        "cancel_time": null,
        "status": "billed",
        "placed_via": "pos",
        "sub_total": "220.00",
        "tip_amount": "0.00",
        "total_tax_amount": "0.00",
        "tax_base": null,
        "tax_mode": null,
        "tip_note": null,
        "total": "220.00",
        "amount_paid": "0.00",
        "created_at": "2026-03-17T17:33:17.000000Z",
        "updated_at": "2026-03-17T17:33:18.000000Z",
        "order_type_id": 1,
        "delivery_app_id": null,
        "custom_order_type_name": null,
        "order_type": {
          "id": 1,
          "branch_id": 4,
          "order_type_name": "Dine In",
          "slug": "dine_in",
          "is_active": 1,
          "is_default": 1,
          "enable_token_number": false,
          "enable_from_customer_site": true,
          "type": "dine_in",
          "created_at": "2025-09-24T18:56:20.000000Z",
          "updated_at": "2026-03-11T05:16:29.000000Z"
        },
        "pickup_date": null,
        "delivery_executive_id": null,
        "delivery_address": null,
        "customer_addresses_id": null,
        "delivery_time": null,
        "prep_time_minutes": null,
        "estimated_delivery_time": null,
        "split_type": null,
        "discount_type": null,
        "discount_value": null,
        "discount_amount": null,
        "order_status": "preparing",
        "delivery_fee": "0.00",
        "customer_lat": null,
        "customer_lng": null,
        "is_within_radius": 0,
        "delivery_started_at": null,
        "delivered_at": null,
        "estimated_eta_min": null,
        "estimated_eta_max": null,
        "cancel_reason_id": null,
        "cancel_reason_text": null,
        "reservation_id": null,
        "loyalty_points_redeemed": 0,
        "loyalty_discount_amount": "0.00",
        "stamp_discount_amount": "0.00",
        "pickup_otp": null,
        "delivery_otp": null,
        "pickup_verified": 0,
        "delivery_verified": 0,
        "kot_count": 1,
        "show_formatted_order_number": "Order #500",
        "customer": null,
        "waiter": null,
        "delivery_executive": null,
        "table": null,
        "reservation": null
      },
      {
        "id": 1153,
        "uuid": "14a6660b-4b5a-4a4e-a61e-25c9a6a47d30",
        "branch_id": 4,
        "order_number": 499,
        "formatted_order_number": null,
        "date_time": "2026-03-17T17:33:07.000000Z",
        "table_id": null,
        "customer_id": null,
        "number_of_pax": 1,
        "waiter_id": null,
        "added_by": 5,
        "cancelled_by": null,
        "cancel_time": null,
        "status": "billed",
        "placed_via": "pos",
        "sub_total": "220.00",
        "tip_amount": "0.00",
        "total_tax_amount": "0.00",
        "tax_base": null,
        "tax_mode": null,
        "tip_note": null,
        "total": "220.00",
        "amount_paid": "0.00",
        "created_at": "2026-03-17T17:33:07.000000Z",
        "updated_at": "2026-03-17T17:33:07.000000Z",
        "order_type_id": 1,
        "delivery_app_id": null,
        "custom_order_type_name": null,
        "order_type": {
          "id": 1,
          "branch_id": 4,
          "order_type_name": "Dine In",
          "slug": "dine_in",
          "is_active": 1,
          "is_default": 1,
          "enable_token_number": false,
          "enable_from_customer_site": true,
          "type": "dine_in",
          "created_at": "2025-09-24T18:56:20.000000Z",
          "updated_at": "2026-03-11T05:16:29.000000Z"
        },
        "pickup_date": null,
        "delivery_executive_id": null,
        "delivery_address": null,
        "customer_addresses_id": null,
        "delivery_time": null,
        "prep_time_minutes": null,
        "estimated_delivery_time": null,
        "split_type": null,
        "discount_type": null,
        "discount_value": null,
        "discount_amount": null,
        "order_status": "preparing",
        "delivery_fee": "0.00",
        "customer_lat": null,
        "customer_lng": null,
        "is_within_radius": 0,
        "delivery_started_at": null,
        "delivered_at": null,
        "estimated_eta_min": null,
        "estimated_eta_max": null,
        "cancel_reason_id": null,
        "cancel_reason_text": null,
        "reservation_id": null,
        "loyalty_points_redeemed": 0,
        "loyalty_discount_amount": "0.00",
        "stamp_discount_amount": "0.00",
        "pickup_otp": null,
        "delivery_otp": null,
        "pickup_verified": 0,
        "delivery_verified": 0,
        "kot_count": 1,
        "show_formatted_order_number": "Order #499",
        "customer": null,
        "waiter": null,
        "delivery_executive": null,
        "table": null,
        "reservation": null
      },
      {
        "id": 1152,
        "uuid": "48dc4dd0-ed10-4b4d-9780-ec1bbdc0c47b",
        "branch_id": 4,
        "order_number": 498,
        "formatted_order_number": null,
        "date_time": "2026-03-17T17:29:49.000000Z",
        "table_id": null,
        "customer_id": null,
        "number_of_pax": 1,
        "waiter_id": null,
        "added_by": 5,
        "cancelled_by": null,
        "cancel_time": null,
        "status": "kot",
        "placed_via": "pos",
        "sub_total": "220.00",
        "tip_amount": "0.00",
        "total_tax_amount": "0.00",
        "tax_base": null,
        "tax_mode": null,
        "tip_note": null,
        "total": "220.00",
        "amount_paid": "0.00",
        "created_at": "2026-03-17T17:29:49.000000Z",
        "updated_at": "2026-03-17T17:29:49.000000Z",
        "order_type_id": 1,
        "delivery_app_id": null,
        "custom_order_type_name": null,
        "order_type": {
          "id": 1,
          "branch_id": 4,
          "order_type_name": "Dine In",
          "slug": "dine_in",
          "is_active": 1,
          "is_default": 1,
          "enable_token_number": false,
          "enable_from_customer_site": true,
          "type": "dine_in",
          "created_at": "2025-09-24T18:56:20.000000Z",
          "updated_at": "2026-03-11T05:16:29.000000Z"
        },
        "pickup_date": null,
        "delivery_executive_id": null,
        "delivery_address": null,
        "customer_addresses_id": null,
        "delivery_time": null,
        "prep_time_minutes": null,
        "estimated_delivery_time": null,
        "split_type": null,
        "discount_type": null,
        "discount_value": null,
        "discount_amount": null,
        "order_status": "preparing",
        "delivery_fee": "0.00",
        "customer_lat": null,
        "customer_lng": null,
        "is_within_radius": 0,
        "delivery_started_at": null,
        "delivered_at": null,
        "estimated_eta_min": null,
        "estimated_eta_max": null,
        "cancel_reason_id": null,
        "cancel_reason_text": null,
        "reservation_id": null,
        "loyalty_points_redeemed": 0,
        "loyalty_discount_amount": "0.00",
        "stamp_discount_amount": "0.00",
        "pickup_otp": null,
        "delivery_otp": null,
        "pickup_verified": 0,
        "delivery_verified": 0,
        "kot_count": 1,
        "show_formatted_order_number": "Order #498",
        "customer": null,
        "waiter": null,
        "delivery_executive": null,
        "table": null,
        "reservation": null
      }
    ],
    "first_page_url": "http://bhojpe.in/api/v1/orders?page=1",
    "from": 1,
    "last_page": 22,
    "last_page_url": "http://bhojpe.in/api/v1/orders?page=22",
    "links": [
      {
        "url": null,
        "label": "&laquo; Previous",
        "page": null,
        "active": false
      },
      {
        "url": "http://bhojpe.in/api/v1/orders?page=1",
        "label": "1",
        "page": 1,
        "active": true
      },
      {
        "url": "http://bhojpe.in/api/v1/orders?page=2",
        "label": "2",
        "page": 2,
        "active": false
      },
      {
        "url": "http://bhojpe.in/api/v1/orders?page=3",
        "label": "3",
        "page": 3,
        "active": false
      },
      {
        "url": "http://bhojpe.in/api/v1/orders?page=4",
        "label": "4",
        "page": 4,
        "active": false
      },
      {
        "url": "http://bhojpe.in/api/v1/orders?page=5",
        "label": "5",
        "page": 5,
        "active": false
      },
      {
        "url": "http://bhojpe.in/api/v1/orders?page=6",
        "label": "6",
        "page": 6,
        "active": false
      },
      {
        "url": "http://bhojpe.in/api/v1/orders?page=7",
        "label": "7",
        "page": 7,
        "active": false
      },
      {
        "url": "http://bhojpe.in/api/v1/orders?page=8",
        "label": "8",
        "page": 8,
        "active": false
      },
      {
        "url": "http://bhojpe.in/api/v1/orders?page=9",
        "label": "9",
        "page": 9,
        "active": false
      },
      {
        "url": "http://bhojpe.in/api/v1/orders?page=10",
        "label": "10",
        "page": 10,
        "active": false
      },
      {
        "url": null,
        "label": "...",
        "active": false
      },
      {
        "url": "http://bhojpe.in/api/v1/orders?page=21",
        "label": "21",
        "page": 21,
        "active": false
      },
      {
        "url": "http://bhojpe.in/api/v1/orders?page=22",
        "label": "22",
        "page": 22,
        "active": false
      },
      {
        "url": "http://bhojpe.in/api/v1/orders?page=2",
        "label": "Next &raquo;",
        "page": 2,
        "active": false
      }
    ],
    "next_page_url": "http://bhojpe.in/api/v1/orders?page=2",
    "path": "http://bhojpe.in/api/v1/orders",
    "per_page": 20,
    "prev_page_url": null,
    "to": 5,
    "total": 426
  }
}